@startuml
package command{
  interface ICommand{
    +void execute()
    +void set_memento(IMemento m)
    +IMemento get_memento()
    +String getInfos()
  }

  abstract class Command{
    #IEditorIhm ihm
    #IEditeur moteur
  }
  ICommand <|.. Command
  Command *-- IEditorIhm
  Command *-- IEditeur

  class CopyCommand{
    -CopyMemento memento
  }
  Command <|--CopyCommand
  -class CopyMemento{
    -String copiedString
    +String getCopiedString()
  }
  IMemento <|.. CopyMemento
  CopyCommand +-- CopyMemento
  CopyCommand *-- CopyMemento

  Command <|-- CutCommand

  class GetBufferCommand{
    -String res
    +String get_result()
  }
  Command <|-- GetBufferCommand

  class GetSelectCommand{
    -String res
    -GetSelectMemento memento
    +String get_result()
  }
  Command <|-- GetSelectCommand
  -class GetSelectMemento{
    -String selectedText
    +String getSelectedText()
  }
  IMemento <|.. GetSelectMemento
  GetSelectCommand +-- GetSelectMemento
  GetSelectCommand *-- GetSelectMemento

  class PasteCommand{
    -PasteMemento memento
  }
  Command <|-- PasteCommand
  -class PasteMemento{
    -String pastedString
    +String getPastedString()
  }
  IMemento <|.. PasteMemento
  PasteCommand +-- PasteMemento
  PasteCommand *-- PasteMemento

  class SetSelectCommand{
    -SetSelectMemento memento
  }
  Command <|-- SetSelectCommand
  -class SetSelectMemento{
    -int start
    -int end
  }
  IMemento <|.. SetSelectMemento
  SetSelectCommand +-- SetSelectMemento
  SetSelectCommand *-- SetSelectMemento

  class WriteCommand{
    -WriteMemento memento
  }
  Command <|-- WriteCommand
  -class WriteMemento{
    -String text
  }
  IMemento <|.. WriteMemento
  WriteCommand +-- WriteMemento
  WriteCommand *-- WriteMemento

}
@enduml
